{
    "app": {
        "title": "React Boilerplate"
    },
    "client": {
        "host": "127.0.0.1",
        "port": 3031,
        "source": ["client", "src"],
        "expose": ["client", "public"]
    },
    "server": {
        "host": "127.0.0.1",
        "port": 3032,
        "session": {
            "cookie": "SUID",
            "folder": ["server", "sessions"],
            "ext": "sid"
        },
        "publish": ["server", "public"]
    },
    "favicon": {
        "source": ["client", "public", "images", "logo.png"],
        "dest": ["client", "public"],
        "data": ["faviconData.json"]
    }
}
